Lab 24: Chicago Crime Data I
…
## [1] 44.13909

Is this smaller, larger, or about the same as the same measurement over the over the entire dataset? Can we safely compare these measurements? If so describe the relationship in words.

Answer: This is larger

You have the tools to get the number of households in Humboldt Park entirely using R code. Specifically, filter ca to only include area 23 and then pull off num_households with the $ operator. Try this here:

## [1] 17830

Now that we have an idea of what it means to take means and sums over this dataset, use group_summarize to summarize crimes at the community area level. Save the result as crimes_ca:

We want to combine the datasets crimes_ca and ca. To do this we use a new function left_join, as follows:

## # A tibble: 77 x 56
##    area_number arrest_flag_mean domestic_flag_mean night_flag_mean
##          <int>            <dbl>              <dbl>           <dbl>
##  1           1           0.158              0.140            0.882
##  2           2           0.139              0.136            0.899
##  3           3           0.184              0.0940           0.889
##  4           4           0.128              0.0880           0.893
##  5           5           0.102              0.0483           0.878
##  6           6           0.120              0.0400           0.900
##  7           7           0.0708             0.0345           0.896
##  8           8           0.134              0.0401           0.909
##  9           9           0.0947             0.124            0.852
## 10          10           0.101              0.111            0.879
## # ... with 67 more rows, and 52 more variables: burglary_mean <dbl>,
## #   theft_mean <dbl>, battery_mean <dbl>, damage_mean <dbl>,
## #   assault_mean <dbl>, deception_mean <dbl>, robbery_mean <dbl>,
## #   narcotics_mean <dbl>, arrest_flag_median <dbl>,
## #   domestic_flag_median <dbl>, night_flag_median <dbl>,
## #   burglary_median <dbl>, theft_median <dbl>, battery_median <dbl>,
## #   damage_median <dbl>, assault_median <dbl>, deception_median <dbl>,
## #   robbery_median <dbl>, narcotics_median <dbl>, arrest_flag_sd <dbl>,
## #   domestic_flag_sd <dbl>, night_flag_sd <dbl>, burglary_sd <dbl>,
…
